{
    "response": {
        "status": "ok",
        "userTier": "developer",
        "total": 400,
        "startIndex": 1,
        "pageSize": 10,
        "currentPage": 1,
        "pages": 40,
        "orderBy": "relevance",
        "results": [
            {
                "id": "film/2022/oct/23/descendant-review-fascinating-documentary-about-a-lost-slave-ship-margaret-brown",
                "type": "article",
                "sectionId": "film",
                "sectionName": "Film",
                "webPublicationDate": "2022-10-23T12:00:36Z",
                "webTitle": "Descendant review – fascinating documentary about a lost slave ship",
                "webUrl": "https://www.theguardian.com/film/2022/oct/23/descendant-review-fascinating-documentary-about-a-lost-slave-ship-margaret-brown",
                "apiUrl": "https://content.guardianapis.com/film/2022/oct/23/descendant-review-fascinating-documentary-about-a-lost-slave-ship-margaret-brown",
                "fields": {
                    "headline": "Descendant review – fascinating documentary about a lost slave ship",
                    "starRating": "4",
                    "shortUrl": "https://www.theguardian.com/p/mfgp5",
                    "thumbnail": "https://media.guim.co.uk/4d228c4cf0348af01fd297d77941b7bb41a22702/321_0_1808_1086/500.jpg"
                },
                "tags": [
                    {
                        "id": "profile/wendy-ide",
                        "type": "contributor",
                        "sectionId": "film",
                        "sectionName": "Film",
                        "webTitle": "Wendy Ide",
                        "webUrl": "https://www.theguardian.com/profile/wendy-ide",
                        "apiUrl": "https://content.guardianapis.com/profile/wendy-ide",
                        "references": [],
                        "bio": "<p>Wendy Ide is the Observer's chief film critic<br></p>",
                        "bylineImageUrl": "https://uploads.guim.co.uk/2018/01/17/Wendy-Ide.jpg",
                        "bylineLargeImageUrl": "https://uploads.guim.co.uk/2018/01/17/Wendy_Ide,_L.png",
                        "firstName": "Wendy",
                        "lastName": "Ide"
                    }
                ],
                "isHosted": false,
                "pillarId": "pillar/arts",
                "pillarName": "Arts"
            },
            {
                "id": "film/2023/jun/20/the-super-8-years-review-the-family-life-of-annie-ernaux",
                "type": "article",
                "sectionId": "film",
                "sectionName": "Film",
                "webPublicationDate": "2023-06-20T10:00:30Z",
                "webTitle": "The Super 8 Years review – the family life of a Nobel prizewinner caught on film",
                "webUrl": "https://www.theguardian.com/film/2023/jun/20/the-super-8-years-review-the-family-life-of-annie-ernaux",
                "apiUrl": "https://content.guardianapis.com/film/2023/jun/20/the-super-8-years-review-the-family-life-of-annie-ernaux",
                "fields": {
                    "headline": "The Super 8 Years review – the family life of a Nobel prizewinner caught on film",
                    "starRating": "3",
                    "shortUrl": "https://www.theguardian.com/p/z8dam",
                    "thumbnail": "https://media.guim.co.uk/bcaca20c9431831f2c1647b8717372d784e4a9e6/0_205_1440_864/500.jpg"
                },
                "tags": [
                    {
                        "id": "profile/peterbradshaw",
                        "type": "contributor",
                        "webTitle": "Peter Bradshaw",
                        "webUrl": "https://www.theguardian.com/profile/peterbradshaw",
                        "apiUrl": "https://content.guardianapis.com/profile/peterbradshaw",
                        "references": [],
                        "bio": "<p>Peter Bradshaw is the Guardian's film critic</p>",
                        "bylineImageUrl": "https://uploads.guim.co.uk/2018/01/10/Peter-Bradshaw.jpg",
                        "bylineLargeImageUrl": "https://uploads.guim.co.uk/2018/01/10/Peter_Bradshaw,_L.png",
                        "firstName": "Peter",
                        "lastName": "Bradshaw",
                        "twitterHandle": "PeterBradshaw1"
                    }
                ],
                "isHosted": false,
                "pillarId": "pillar/arts",
                "pillarName": "Arts"
            },
            {
                "id": "film/2023/oct/12/the-book-of-clarence-review-theres-no-messiah-in-here",
                "type": "article",
                "sectionId": "film",
                "sectionName": "Film",
                "webPublicationDate": "2023-10-12T06:48:23Z",
                "webTitle": "The Book of Clarence review – there’s no messiah in here",
                "webUrl": "https://www.theguardian.com/film/2023/oct/12/the-book-of-clarence-review-theres-no-messiah-in-here",
                "apiUrl": "https://content.guardianapis.com/film/2023/oct/12/the-book-of-clarence-review-theres-no-messiah-in-here",
                "fields": {
                    "headline": "The Book of Clarence review – there’s no messiah in here",
                    "starRating": "3",
                    "shortUrl": "https://www.theguardian.com/p/p4y7g",
                    "thumbnail": "https://media.guim.co.uk/81200229285dae3e53e88f775301987a4b988844/0_149_3000_1800/500.jpg"
                },
                "tags": [
                    {
                        "id": "profile/peterbradshaw",
                        "type": "contributor",
                        "webTitle": "Peter Bradshaw",
                        "webUrl": "https://www.theguardian.com/profile/peterbradshaw",
                        "apiUrl": "https://content.guardianapis.com/profile/peterbradshaw",
                        "references": [],
                        "bio": "<p>Peter Bradshaw is the Guardian's film critic</p>",
                        "bylineImageUrl": "https://uploads.guim.co.uk/2018/01/10/Peter-Bradshaw.jpg",
                        "bylineLargeImageUrl": "https://uploads.guim.co.uk/2018/01/10/Peter_Bradshaw,_L.png",
                        "firstName": "Peter",
                        "lastName": "Bradshaw",
                        "twitterHandle": "PeterBradshaw1"
                    }
                ],
                "isHosted": false,
                "pillarId": "pillar/arts",
                "pillarName": "Arts"
            },
            {
                "id": "film/2023/jun/25/the-super-8-years-review-deeply-personal-documentary-of-annie-ernauxs-family-breakdown",
                "type": "article",
                "sectionId": "film",
                "sectionName": "Film",
                "webPublicationDate": "2023-06-25T11:30:35Z",
                "webTitle": "The Super 8 Years review – Nobel laureate Annie Ernaux’s lucid and deeply personal documentary",
                "webUrl": "https://www.theguardian.com/film/2023/jun/25/the-super-8-years-review-deeply-personal-documentary-of-annie-ernauxs-family-breakdown",
                "apiUrl": "https://content.guardianapis.com/film/2023/jun/25/the-super-8-years-review-deeply-personal-documentary-of-annie-ernauxs-family-breakdown",
                "fields": {
                    "headline": "The Super 8 Years review – deeply personal documentary of Annie Ernaux’s family breakdown",
                    "starRating": "3",
                    "shortUrl": "https://www.theguardian.com/p/z99ae",
                    "thumbnail": "https://media.guim.co.uk/9f66488c104e82eb53912b3831f1f75419e83444/0_86_1440_864/500.jpg"
                },
                "tags": [
                    {
                        "id": "profile/wendy-ide",
                        "type": "contributor",
                        "sectionId": "film",
                        "sectionName": "Film",
                        "webTitle": "Wendy Ide",
                        "webUrl": "https://www.theguardian.com/profile/wendy-ide",
                        "apiUrl": "https://content.guardianapis.com/profile/wendy-ide",
                        "references": [],
                        "bio": "<p>Wendy Ide is the Observer's chief film critic<br></p>",
                        "bylineImageUrl": "https://uploads.guim.co.uk/2018/01/17/Wendy-Ide.jpg",
                        "bylineLargeImageUrl": "https://uploads.guim.co.uk/2018/01/17/Wendy_Ide,_L.png",
                        "firstName": "Wendy",
                        "lastName": "Ide"
                    }
                ],
                "isHosted": false,
                "pillarId": "pillar/arts",
                "pillarName": "Arts"
            },
            {
                "id": "film/2023/mar/06/words-of-negroes-review-sorcery-trial-documentary-raises-ghosts-of-slavery",
                "type": "article",
                "sectionId": "film",
                "sectionName": "Film",
                "webPublicationDate": "2023-03-12T16:00:35Z",
                "webTitle": "Words of Negroes review – sorcery trial documentary raises ghosts of slavery",
                "webUrl": "https://www.theguardian.com/film/2023/mar/06/words-of-negroes-review-sorcery-trial-documentary-raises-ghosts-of-slavery",
                "apiUrl": "https://content.guardianapis.com/film/2023/mar/06/words-of-negroes-review-sorcery-trial-documentary-raises-ghosts-of-slavery",
                "fields": {
                    "headline": "Words of Negroes review – sorcery trial documentary raises ghosts of slavery",
                    "starRating": "3",
                    "shortUrl": "https://www.theguardian.com/p/nenat",
                    "thumbnail": "https://media.guim.co.uk/cb4217c8ecdeb798200e31762f0c1a3d7893f6c4/94_0_2813_1688/500.jpg"
                },
                "tags": [
                    {
                        "id": "profile/phuong-le",
                        "type": "contributor",
                        "webTitle": "Phuong Le",
                        "webUrl": "https://www.theguardian.com/profile/phuong-le",
                        "apiUrl": "https://content.guardianapis.com/profile/phuong-le",
                        "references": [],
                        "bio": "<p>Phuong Le is a film critic</p>",
                        "firstName": "Phuong",
                        "lastName": "Le"
                    }
                ],
                "isHosted": false,
                "pillarId": "pillar/arts",
                "pillarName": "Arts"
            },
            {
                "id": "film/2022/dec/10/emancipation-review-will-smith-is-dragged-through-the-mud-in-ugly-manipulative-drama",
                "type": "article",
                "sectionId": "film",
                "sectionName": "Film",
                "webPublicationDate": "2022-12-10T15:00:05Z",
                "webTitle": "Emancipation review – Will Smith is dragged through the mud in ugly drama",
                "webUrl": "https://www.theguardian.com/film/2022/dec/10/emancipation-review-will-smith-is-dragged-through-the-mud-in-ugly-manipulative-drama",
                "apiUrl": "https://content.guardianapis.com/film/2022/dec/10/emancipation-review-will-smith-is-dragged-through-the-mud-in-ugly-manipulative-drama",
                "fields": {
                    "headline": "Emancipation review – Will Smith is dragged through the mud in ugly, manipulative drama",
                    "starRating": "2",
                    "shortUrl": "https://www.theguardian.com/p/mp62x",
                    "thumbnail": "https://media.guim.co.uk/94b2489a2c616cc5ed95b05347db17b0a0c54fcc/0_289_6000_3600/500.jpg"
                },
                "tags": [
                    {
                        "id": "profile/wendy-ide",
                        "type": "contributor",
                        "sectionId": "film",
                        "sectionName": "Film",
                        "webTitle": "Wendy Ide",
                        "webUrl": "https://www.theguardian.com/profile/wendy-ide",
                        "apiUrl": "https://content.guardianapis.com/profile/wendy-ide",
                        "references": [],
                        "bio": "<p>Wendy Ide is the Observer's chief film critic<br></p>",
                        "bylineImageUrl": "https://uploads.guim.co.uk/2018/01/17/Wendy-Ide.jpg",
                        "bylineLargeImageUrl": "https://uploads.guim.co.uk/2018/01/17/Wendy_Ide,_L.png",
                        "firstName": "Wendy",
                        "lastName": "Ide"
                    }
                ],
                "isHosted": false,
                "pillarId": "pillar/arts",
                "pillarName": "Arts"
            },
            {
                "id": "film/2023/sep/18/last-days-at-sea-review-evocative-documentary-about-a-boy-leaving-his-picturesque-childhood-behind",
                "type": "article",
                "sectionId": "film",
                "sectionName": "Film",
                "webPublicationDate": "2023-09-18T06:00:21Z",
                "webTitle": "Last Days at Sea review – evocative documentary about a boy leaving his picturesque childhood behind",
                "webUrl": "https://www.theguardian.com/film/2023/sep/18/last-days-at-sea-review-evocative-documentary-about-a-boy-leaving-his-picturesque-childhood-behind",
                "apiUrl": "https://content.guardianapis.com/film/2023/sep/18/last-days-at-sea-review-evocative-documentary-about-a-boy-leaving-his-picturesque-childhood-behind",
                "fields": {
                    "headline": "Last Days at Sea review – evocative documentary about a boy leaving his picturesque childhood behind",
                    "starRating": "3",
                    "shortUrl": "https://www.theguardian.com/p/zqgbm",
                    "thumbnail": "https://media.guim.co.uk/6fb7862386da4fddb021f6997b6931adcd60ed90/216_0_3134_1882/500.jpg"
                },
                "tags": [
                    {
                        "id": "profile/phuong-le",
                        "type": "contributor",
                        "webTitle": "Phuong Le",
                        "webUrl": "https://www.theguardian.com/profile/phuong-le",
                        "apiUrl": "https://content.guardianapis.com/profile/phuong-le",
                        "references": [],
                        "bio": "<p>Phuong Le is a film critic</p>",
                        "firstName": "Phuong",
                        "lastName": "Le"
                    }
                ],
                "isHosted": false,
                "pillarId": "pillar/arts",
                "pillarName": "Arts"
            },
            {
                "id": "film/2022/sep/03/three-thousand-years-of-longing-review-djinn-in-need-of-a-tonic-tilda-swinton-idris-elba",
                "type": "article",
                "sectionId": "film",
                "sectionName": "Film",
                "webPublicationDate": "2022-09-03T14:00:19Z",
                "webTitle": "Three Thousand Years of Longing review – djinn in need of a tonic",
                "webUrl": "https://www.theguardian.com/film/2022/sep/03/three-thousand-years-of-longing-review-djinn-in-need-of-a-tonic-tilda-swinton-idris-elba",
                "apiUrl": "https://content.guardianapis.com/film/2022/sep/03/three-thousand-years-of-longing-review-djinn-in-need-of-a-tonic-tilda-swinton-idris-elba",
                "fields": {
                    "headline": "Three Thousand Years of Longing review – djinn in need of a tonic",
                    "starRating": "2",
                    "shortUrl": "https://www.theguardian.com/p/m6exm",
                    "thumbnail": "https://media.guim.co.uk/81bd12360a595589a3f8af403abcf387e3a47265/310_0_2860_1716/500.jpg"
                },
                "tags": [
                    {
                        "id": "profile/wendy-ide",
                        "type": "contributor",
                        "sectionId": "film",
                        "sectionName": "Film",
                        "webTitle": "Wendy Ide",
                        "webUrl": "https://www.theguardian.com/profile/wendy-ide",
                        "apiUrl": "https://content.guardianapis.com/profile/wendy-ide",
                        "references": [],
                        "bio": "<p>Wendy Ide is the Observer's chief film critic<br></p>",
                        "bylineImageUrl": "https://uploads.guim.co.uk/2018/01/17/Wendy-Ide.jpg",
                        "bylineLargeImageUrl": "https://uploads.guim.co.uk/2018/01/17/Wendy_Ide,_L.png",
                        "firstName": "Wendy",
                        "lastName": "Ide"
                    }
                ],
                "isHosted": false,
                "pillarId": "pillar/arts",
                "pillarName": "Arts"
            },
            {
                "id": "film/2023/sep/09/dicks-the-musical-movie-review-josh-sharp-aaron-jackson",
                "type": "article",
                "sectionId": "film",
                "sectionName": "Film",
                "webPublicationDate": "2023-09-09T14:17:01Z",
                "webTitle": "Dicks: The Musical review – the strangest, most demented film of the year",
                "webUrl": "https://www.theguardian.com/film/2023/sep/09/dicks-the-musical-movie-review-josh-sharp-aaron-jackson",
                "apiUrl": "https://content.guardianapis.com/film/2023/sep/09/dicks-the-musical-movie-review-josh-sharp-aaron-jackson",
                "fields": {
                    "headline": "Dicks: The Musical review – the strangest, most demented film of the year",
                    "starRating": "3",
                    "shortUrl": "https://www.theguardian.com/p/zpb32",
                    "thumbnail": "https://media.guim.co.uk/e5a35fc1d207a9e69693138f4d8b961f45310861/100_0_1000_600/500.jpg"
                },
                "tags": [
                    {
                        "id": "profile/charles-bramesco",
                        "type": "contributor",
                        "webTitle": "Charles Bramesco",
                        "webUrl": "https://www.theguardian.com/profile/charles-bramesco",
                        "apiUrl": "https://content.guardianapis.com/profile/charles-bramesco",
                        "references": [],
                        "bio": "<p>Charles Bramesco is a film and television critic living in Brooklyn</p>",
                        "firstName": "Charles ",
                        "lastName": "Bramesco"
                    }
                ],
                "isHosted": false,
                "pillarId": "pillar/arts",
                "pillarName": "Arts"
            },
            {
                "id": "film/2023/jul/17/the-secret-kingdom-review-even-an-army-of-pangolins-cant-liven-up-this-kids-tale",
                "type": "article",
                "sectionId": "film",
                "sectionName": "Film",
                "webPublicationDate": "2023-07-17T08:00:23Z",
                "webTitle": "The Secret Kingdom review – underground world with army of pangolins in spooky kids’ tale",
                "webUrl": "https://www.theguardian.com/film/2023/jul/17/the-secret-kingdom-review-even-an-army-of-pangolins-cant-liven-up-this-kids-tale",
                "apiUrl": "https://content.guardianapis.com/film/2023/jul/17/the-secret-kingdom-review-even-an-army-of-pangolins-cant-liven-up-this-kids-tale",
                "fields": {
                    "headline": "The Secret Kingdom review – underground world with army of pangolins in spooky kids’ tale",
                    "starRating": "2",
                    "shortUrl": "https://www.theguardian.com/p/ze2ax",
                    "thumbnail": "https://media.guim.co.uk/09cb5bf36987bbee49bff04b5b70ad831746ccb3/102_0_1770_1062/500.jpg"
                },
                "tags": [
                    {
                        "id": "profile/cathclarke",
                        "type": "contributor",
                        "webTitle": "Cath Clarke",
                        "webUrl": "https://www.theguardian.com/profile/cathclarke",
                        "apiUrl": "https://content.guardianapis.com/profile/cathclarke",
                        "references": [],
                        "firstName": "clarke",
                        "lastName": "cath"
                    }
                ],
                "isHosted": false,
                "pillarId": "pillar/arts",
                "pillarName": "Arts"
            }
        ]
    }
}
